{
    "KPlugin": {
        "Authors": [
            {
                "Email": "matthieu_gallien@yahoo.fr",
                "Name": "Matthieu Gallien",
                "Name[ar]": "Matthieu Gallien",
                "Name[az]": "Matthieu Gallien",
                "Name[be]": "Matthieu Gallien",
                "Name[bg]": "Matthieu Gallien",
                "Name[ca@valencia]": "Matthieu Gallien",
                "Name[ca]": "Matthieu Gallien",
                "Name[cs]": "Matthieu Gallien",
                "Name[da]": "Matthieu Gallien",
                "Name[de]": "Matthieu Gallien",
                "Name[en_GB]": "Matthieu Gallien",
                "Name[eo]": "Matthieu Gallien",
                "Name[es]": "Matthieu Gallien",
                "Name[et]": "Matthieu Gallien",
                "Name[eu]": "Matthieu Gallien",
                "Name[fi]": "Matthieu Gallien",
                "Name[fr]": "Matthieu Gallien",
                "Name[hi]": "मैथ्यू गैलियन",
                "Name[hu]": "Matthieu Gallien",
                "Name[ia]": "Matthieu Gallien",
                "Name[id]": "Matthieu Gallien",
                "Name[is]": "Matthieu Gallien",
                "Name[it]": "Matthieu Gallien",
                "Name[ja]": "Matthieu Gallien",
                "Name[ka]": "Matthieu Gallien",
                "Name[ko]": "Matthieu Gallien",
                "Name[lt]": "Matthieu Gallien",
                "Name[nl]": "Matthieu Gallien",
                "Name[nn]": "Matthieu Gallien",
                "Name[pl]": "Matthieu Gallien",
                "Name[pt]": "Matthieu Gallien",
                "Name[pt_BR]": "Matthieu Gallien",
                "Name[ro]": "Matthieu Gallien",
                "Name[ru]": "Matthieu Gallien",
                "Name[sk]": "Matthieu Gallien",
                "Name[sl]": "Matthieu Gallien",
                "Name[sv]": "Matthieu Gallien",
                "Name[ta]": "மேத்தியூ கேல்லியென்",
                "Name[tr]": "Matthieu Gallien",
                "Name[uk]": "Matthieu Gallien",
                "Name[vi]": "Matthieu Gallien",
                "Name[x-test]": "xxMatthieu Gallienxx",
                "Name[zh_CN]": "Matthieu Gallien"
            }
        ],
        "Description": "Engine for applications' status information, based on the Status Notifier protocol.",
        "Description[ar]": "محرّك لمعلومات حالة التطبيقات، بناءً على ميفاق مُخطِر الحالة.",
        "Description[az]": "Tətbiqlərin vəziyyəti haqqında, vəziyyət Bildirişi protokoluna əsaslanan məlumatlar mənbəyi.",
        "Description[be]": "Сістэма для вызначэння стану праграм на аснове пратакола апавяшчэнняў пра стан.",
        "Description[bg]": "Енджин за информация за състоянието на приложенията, базиран на протокола Status Notifier.",
        "Description[ca@valencia]": "Motor d'informació d'estat de les aplicacions, basat en el protocol notificador d'estat.",
        "Description[ca]": "Motor d'informació d'estat de les aplicacions, basat en el protocol notificador d'estat.",
        "Description[cs]": "Stroj pro informace o stavu aplikací, založen na protokolu Status Notifier",
        "Description[da]": "Motor til programmers statusinformation, baseret på protokollen til statusbekendtgørelser.",
        "Description[de]": "Treiber für Status-Informationen von Anwendungen, basierend auf dem Status-Benachrichtigung-Protokoll.",
        "Description[en_GB]": "Engine for applications' status information, based on the Status Notifier protocol.",
        "Description[eo]": "Motoro por aplikaĵaj statinformoj bazita sur la protokolo de Status Notifier.",
        "Description[es]": "Motor para informar del estado de aplicaciones, basado en el protocolo Status Notifier.",
        "Description[et]": "Rakenduse olekuteabe mootor Status Notifieri protokolli alusel.",
        "Description[eu]": "Aplikazioen egoerari buruzko informazioa emateko motorra, egoera-jakinarazlearen protokoloan oinarritua.",
        "Description[fi]": "Tilailmoitinyhteyskäytäntöön perustuva sovellusten tilatietomoottori.",
        "Description[fr]": "Moteur d'informations sur l'état des applications utilisant le protocole de notification d'état.",
        "Description[hi]": "स्थिति सूचक प्रोटोकॉल के आधार पर अनुप्रयोगों की स्थिति की जानकारी के लिए इंजन।",
        "Description[hu]": "Az állaporértesítés protokollon alapuló  modul az alkalmazások állapotértesítési információihoz.",
        "Description[ia]": "Motor pro information de stato de applicationes basate sur le protocollo de Notificator de Stato",
        "Description[id]": "Mesin untuk informasi status aplikasi, berbasis protokol Notifikasi Status.",
        "Description[is]": "Vél fyrir stöðuupplýsingar forrits, byggt á Status Notifier-samskiptareglunni",
        "Description[it]": "Motore per le informazioni di stato delle applicazioni, basato sul protocollo del notificatore di stato.",
        "Description[ja]": "ステータス通知プロトコルに基づくアプリケーションステータス情報エンジン。",
        "Description[ka]": "ძრავი აპლიკაციების სტატუსის ინფორმაციის მისაღებად, სტატუსის გაფრთხილების პროტოკოლით.",
        "Description[ko]": "상태 알림 프로토콜을 사용하는 프로그램 상태 정보 엔진입니다.",
        "Description[lt]": "Informacijos apie programų būseną variklis, pagrįstas būsenos pranešėjo protokolu.",
        "Description[nl]": "Engine voor statusinformatie van toepassingen gebaseerde op het statusnotificatieprotocol.",
        "Description[nn]": "Motor for programstatusinformasjon basert på Status Notifier-protokollen.",
        "Description[pa]": "ਹਾਲਤ ਨੋਟੀਫਾਇਰ ਪਰੋਟੋਕਾਲ ਉੱਤੇ ਅਧਾਰਿਤ ਐਪਲੀਕੇਸ਼ਨ ਹਾਲਤ ਜਾਣਕਾਰੀ ਲਈ ਇੰਜਣ।",
        "Description[pl]": "Silnik do przekazywania informacji o stanie programów, oparty o protokół powiadomień o stanie.",
        "Description[pt]": "Motor para a informação do estado das aplicações, baseado no protocolo do Item de Notificação do Estado.",
        "Description[pt_BR]": "Mecanismo para informação de status de aplicativos baseado no protocolo do Notificador de Status.",
        "Description[ro]": "Motor pentru informațiile de stare ale aplicațiilor, bazat pe protocolul Notificator de Stare.",
        "Description[ru]": "Источник данных о состоянии программ, основанный на протоколе уведомлений о состоянии.",
        "Description[sk]": "Nástroj pre informácie o stave aplikácie, založený na protokole o oznámení stavu.",
        "Description[sl]": "Pogon za podatke o stanju programov, ki temelji na protokolu obvestilnika o stanju.",
        "Description[sv]": "Gränssnitt för statusinformation om program baserat på protokollet för statusunderrättelser.",
        "Description[ta]": "செயலிகளின் நிலை குறித்த விவரங்களை Status Notifier (SNI) நெறிமுறை மூலம் வழங்கும்.",
        "Description[tr]": "Uygulamaların durum bilgisi için motor, Durum Bildiricisi protokolü temelli.",
        "Description[uk]": "Рушій даних щодо стану програм, заснований на протоколі сповіщення про стан.",
        "Description[vi]": "Dụng cụ cấp thông tin về trạng thái ứng dụng, dựa trên giao thức \"Trình thông báo trạng thái\".",
        "Description[x-test]": "xxEngine for applications' status information, based on the Status Notifier protocol.xx",
        "Description[zh_CN]": "用于提供应用程序状态信息的引擎，基于状态通知协议。",
        "Description[zh_TW]": "提供應用程式狀態的資訊引擎，使用狀態通知器協定。",
        "EnabledByDefault": true,
        "Icon": "preferences-desktop-notification",
        "License": "GPL",
        "Name": "Status Notifier Information",
        "Name[ar]": "معلومات مُخطِر الحالة",
        "Name[az]": "Vəziyyət haqqında bildiriş məlumatları",
        "Name[be]": "Звесткі пра апавяшчэнні стану",
        "Name[bg]": "Информация на Status Notifier - програма за известие на състояние",
        "Name[bs]": "Podaci izveštavača o stanju",
        "Name[ca@valencia]": "Informació del notificador d'estats",
        "Name[ca]": "Informació del notificador d'estats",
        "Name[cs]": "Informace o upozornění stavu",
        "Name[da]": "Information om statusbekendtgørelse",
        "Name[de]": "Status-Informationen",
        "Name[el]": "Πληροφορίες για τις ειδοποιήσεις κατάστασης",
        "Name[en_GB]": "Status Notifier Information",
        "Name[eo]": "Informo pri Stat-atentigilo",
        "Name[es]": "Información de notificación de estado",
        "Name[et]": "Oleku märguandja teave",
        "Name[eu]": "Egoera-jakinarazleari buruzko informazioa",
        "Name[fi]": "Järjestelmäilmoittimen tiedot",
        "Name[fr]": "Informations sur le notificateur d'état",
        "Name[gl]": "Información do notificador do estado",
        "Name[he]": "מידע מ־Status Notifier",
        "Name[hi]": "तंत्र सूचक जानकारी",
        "Name[hr]": "Informacije glasnika stanja",
        "Name[hu]": "Állaportértesítési információk",
        "Name[ia]": "Informationes de notificator de stato",
        "Name[id]": "Informasi Penotifikasi Status",
        "Name[is]": "Stöðutilkynningaþjónn",
        "Name[it]": "Informazioni sul notificatore di stato",
        "Name[ja]": "ステータス通知情報",
        "Name[ka]": "სტატუსის გაფრთხილების ინფორმაცია",
        "Name[kk]": "Күй-жайы туралы құлақтандыру мәліметі",
        "Name[km]": "ព័ត៌មាន​កម្មវិធី​ជំនួន​ដំណឹង​ស្ថានភាព",
        "Name[kn]": "ಸ್ಥಿತಿ ಸೂಚನಾ ಮಾಹಿತಿ",
        "Name[ko]": "장치 알림이 정보",
        "Name[lt]": "Būsenos pranešėjo informacija",
        "Name[lv]": "Statusa ziņotāja informācija",
        "Name[ml]": "സ്ഥിതിവിവര അറിയിപ്പിന്റെ വിവരങ്ങള്‍",
        "Name[mr]": "स्थिती निदर्शक माहिती",
        "Name[nb]": "StatusNotifier-opplysninger",
        "Name[nds]": "Statusbescheed-Informatschonen",
        "Name[nl]": "Melding van statusinformatie",
        "Name[nn]": "Status Notifier-informasjon",
        "Name[pa]": "ਹਾਲਤ ਨੋਟੀਫਾਇਰ ਜਾਣਕਾਰੀ",
        "Name[pl]": "Informacja o powiadomieniach stanu",
        "Name[pt]": "Informações do Item de Notificação do Estado",
        "Name[pt_BR]": "Informações do Notificador de Status",
        "Name[ro]": "Informații notificator de stare",
        "Name[ru]": "Сведения уведомлений о состоянии",
        "Name[si]": "තත්ව දැනුම්දෙන්නාගේ තොරතුරු",
        "Name[sk]": "Informácie o oznámení stavu",
        "Name[sl]": "Informacije obvestilnika o stanju",
        "Name[sr@ijekavian]": "Подаци извјештавача о стању",
        "Name[sr@ijekavianlatin]": "Podaci izvještavača o stanju",
        "Name[sr@latin]": "Podaci izveštavača o stanju",
        "Name[sr]": "Подаци извештавача о стању",
        "Name[sv]": "Information från statusunderrättelser",
        "Name[ta]": "நிலை அறிவிப்பான்",
        "Name[th]": "ข้อมูลการแจ้งสถานะ",
        "Name[tr]": "Durum Bildirici Bilgileri",
        "Name[ug]": "ھالەت بىلدۈرگۈ ئۇچۇرى",
        "Name[uk]": "Відомості сповіщення про стан",
        "Name[vi]": "Thông tin Trình thông báo trạng thái",
        "Name[wa]": "Informåcion do notifieu d' sitatut",
        "Name[x-test]": "xxStatus Notifier Informationxx",
        "Name[zh_CN]": "状态通知信息",
        "Name[zh_TW]": "狀態通知器資訊"
    }
}
